Case_Study
…
do hosts with multiple sites have highet prices or ratings?

does price have any relation to ratings?

is average length of stay related to neighborhood? price? etc?

Lets answer some questions

nyc_airbnb %>% 
  mutate(
    borough = neighbourhood_group,
    stars = review_scores_location / 2
  )

## # A tibble: 40,753 x 19
##        id review_scores_l name  host_id host_name neighbourhood_g
##     <dbl>            <dbl> <chr>   <dbl> <chr>     <chr>           
##  1 7.95e6               10 City  1.19e5 Linda &  Bronx           
##  2 1.60e7               NA WATE  9.12e6 Collins   Bronx           
##  3 1.89e6               NA Quai  9.82e6 Steve     Bronx           
##  4 6.63e6               10 Larg  1.39e7 Arlene    Bronx           
##  5 5.56e6               10 Quai  2.88e7 Phoebe    Bronx           
##  6 9.15e6               10 Cozy  4.03e5 Diane     Bronx           
##  7 1.17e7               10 Cozy  5.67e7 Josue     Bronx           
##  8 7.15e5                9 2 Be  3.68e6 Enrique   Bronx           
##  9 1.79e7               10 Spac  1.13e7 Yahaira   Bronx           
## 10 1.82e5                9 PRIV  8.73e5 Christia Bronx           
## #  with 40,743 more rows, and 13 more variables: neighbourhood <chr>,
## #   lat <dbl>, long <dbl>, room_type <chr>, price <dbl>,
## #   minimum_nights <dbl>, number_of_reviews <dbl>, last_review <date>,
## #   reviews_per_month <dbl>, calculated_host_listings_count <dbl>,
## #   availability_365 <dbl>, borough <chr>, stars <dbl>
…
